Text Cleaning in R
…
Example: Make trigrams of words instead of tokenizing to single words

text_example %>%
  # make the vector tidy
  tibble::enframe(name = NULL) %>%
  rename(text = value) %>%
  # tokenize to words
  tidytext::unnest_tokens(ngram, text, token = "ngrams", n = 3) 

# A tibble: 78 x 1
   ngram                    
   <chr>                    
 1 michigan state university
 2 state university will    
 3 university will continue 
 4 will continue providing  
 5 continue providing much  
 6 providing much needed    
 7 much needed assistance   
 8 needed assistance to     
 9 assistance to students   
10 to students who          
#  with 68 more rows
…
